\version "2.16.2"
{
<<
{ \tempo 4=120 g2 a2 g2 g2 g2 f2 f2 f2 f2 a2 f'2 f'2 g'2 f'2 c'2  }
{ \tempo 4=120 c''16 a'16 f''16 g''16 d''16 a''16 g'16 d'16 a16 b8 c'8 d'16 f'16 a16 a16 f16 a16 a16 a8 f'8 b'8 c''16 g''8 a''8 a''8 f''8 b'8 d''8 b'16 f'16 c''16 d''8 f''8 a''8 g''8 f''8 b'8 a''8 b''16 a''16 c'''8 a''16 g''16 f''16 e''16 d''16 f''16 g'16 f'16 c'16 a8 a16 c'16 b16 g16 g16 b16 a16 a16 c'16 f'16 g'16 g'16 d'16 a16 b16 d'16 g'8 a'16 e''16 d''8 d''16 g''16 c''16 a'16 a'16 f'16 f'16 d'8 d'16 f'16 g'8 g'8 c''16 f''8 b'8 f'8 b'8 d''8  }

>>
}