\version "2.16.2"
{
<<
{ \tempo 4=120 c'2 f'2 a'2 b'2 g'2 c'2 a2 c'2 d'2 f'2 c'2 g'2 f'2 a'2 g'2  }
{ \tempo 4=120 c''16 g'16 d'16 c'16 g'16 g'16 f'16 f'16 b'16 e''16 f''16 f''16 b'16 d'16 d'16 d'16 c'16 c'16 a16 a16 f16 a16 g16 g16 f16 f16 f16 a16 c'16 g16 g8 g16 c'16 b16 a16 c'16 f16 f16 f16 g16 a16 f16 f8 g8 b8 a16 c'16 f'16 f'16 a'16 c''16 d''16 c''16 f''16 d''16 c''8 a'16 f'16 d'16 d'16 f'16 b16 c'8 f16 f16 a16 f8 f8 a16 g16 b8 g8 g8 f16 d'16 c'16 c'16 c'16 c'16 d'16 g16 a16 f16 c'16 d'16 b16 a16 a16 f16 f16 f16 g16 b8 f'16 e'16 d'16 a16 g16 a16 c'16 g16 f16 b16 b16 d'16 c'16 c'16 d'16  }

>>
}