\version "2.16.2"
{
<<
{ \tempo 4=120 c'2 a2 f2 f2 f2 f2 f2 f2 g2 b2 a2 g'2 d''2 d''2 g'2  }
{ \tempo 4=120 d''16 e''16 f''16 f''16 e''16 d''16 e'16 f'16 a''16 a''16 g''16 f'''16 f'''16 a''16 d'''16 d'''16 e'''16 f''8 d''8 g''16 d'''16 d'''16 d'''16 d'''16 g'''16 e'''8 e'''8 c'''8 d'''8 c'''8 b''8 g'''16 f'''16 c'''16 d'''16 a''16 f''16 g''16 g''16 g''16 e''8 c'''16 d'''8 a''16 f''16 a''16 a''8 d''8 b'8 g'16 g'16 c'16 b'16 c''16 d''16 c''16 f'16 a'16 f'16 d'16 a16 f16 a16 f'16 a16 g16 a16 g16 g16 a8 f8 f16 f16 f16 f16 f16 c'8 f8 f8 f16 f16 f16 f8 f16 f16 g16 g16 a16 c'8 c''8 a'16 a'16 f'8 g'8 c'16 c'8  }

>>
}