

track 0:
<C3>2.000000 <A2>2.000000 <F2>2.000000 <F2>2.000000 <F2>2.000000 <F2>2.000000 <F2>2.000000 <F2>2.000000 <G2>2.000000 <B2>2.000000 <A2>2.000000 <G3>2.000000 <D4>2.000000 <D4>2.000000 <G3>2.000000 

track 1:
<D4>0.250000 <E4>0.250000 <F4>0.250000 <F4>0.250000 <E4>0.250000 <D4>0.250000 <E3>0.250000 <F3>0.250000 <A4>0.250000 <A4>0.250000 <G4>0.250000 <F5>0.250000 <F5>0.250000 <A4>0.250000 <D5>0.250000 <D5>0.250000 <E5>0.250000 <F4>0.500000 <D4>0.500000 <G4>0.250000 <D5>0.250000 <D5>0.250000 <D5>0.250000 <D5>0.250000 <G5>0.250000 <E5>0.500000 <E5>0.500000 <C5>0.500000 <D5>0.500000 <C5>0.500000 <B4>0.500000 <G5>0.250000 <F5>0.250000 <C5>0.250000 <D5>0.250000 <A4>0.250000 <F4>0.250000 <G4>0.250000 <G4>0.250000 <G4>0.250000 <E4>0.500000 <C5>0.250000 <D5>0.500000 <A4>0.250000 <F4>0.250000 <A4>0.250000 <A4>0.500000 <D4>0.500000 <B3>0.500000 <G3>0.250000 <G3>0.250000 <C3>0.250000 <B3>0.250000 <C4>0.250000 <D4>0.250000 <C4>0.250000 <F3>0.250000 <A3>0.250000 <F3>0.250000 <D3>0.250000 <A2>0.250000 <F2>0.250000 <A2>0.250000 <F3>0.250000 <A2>0.250000 <G2>0.250000 <A2>0.250000 <G2>0.250000 <G2>0.250000 <A2>0.500000 <F2>0.500000 <F2>0.250000 <F2>0.250000 <F2>0.250000 <F2>0.250000 <F2>0.250000 <C3>0.500000 <F2>0.500000 <F2>0.500000 <F2>0.250000 <F2>0.250000 <F2>0.250000 <F2>0.500000 <F2>0.250000 <F2>0.250000 <G2>0.250000 <G2>0.250000 <A2>0.250000 <C3>0.500000 <C4>0.500000 <A3>0.250000 <A3>0.250000 <F3>0.500000 <G3>0.500000 <C3>0.250000 <C3>0.500000 

end of song.
