\version "2.16.2"
{
<<
{ \tempo 4=120 g'2 a'2 f'2 f'2 c''2 g'2 a2 f2 f2 f2 f2 g2 c'2 d'2 a2  }
{ \tempo 4=120 f''8 g''8 b'8 f''8 e''8 f''8 e''8 e''8 d''8 f''16 a'16 g'16 g'16 g'16 d'16 d'8 f8 f16 a16 f16 f16 f16 a16 f16 g16 a16 f16 f16 b16 e'16 d'16 c'16 c'16 g16 f16 a16 f16 f16 f16 f16 f16 d'16 a16 g16 b16 g16 a16 d'16 a16 a16 a8 g'8 c''8 g''8 b''8 a''16 c'''16 f''16 f''16 c''16 b'16 c'16 c'16 g'16 g'8 g'16 c''16 a'16 c''16 e''16 g''16 c''16 f'16 c''16 a'16 g'16 g'16 d'16 d'16 c'16 f'16 e'16 f'8 d'8 f16 f8 f16 a16 d'16 a'16 d''16 g''16 f''16 g'16 f'8 d'8 g8 d'16  }

>>
}