n 0 22050 32 14.875000 p  a 0 60 0.25 0 5439
e 24 0.500000
e 24 0.500000
e 29 0.500000
e 24 0.500000
e 20 0.500000
e 27 0.500000
e 32 0.500000
e 22 0.500000
e 26 0.500000
e 29 0.500000
e 29 0.500000
e 20 0.500000
e 20 0.500000
e 20 0.500000
e 26 0.500000
e 20 0.500000
e 27 0.500000
e 22 0.500000
e 24 0.500000
e 22 0.500000
e 20 0.500000
e 24 0.500000
e 24 0.500000
e 27 0.500000
e 22 0.500000
e 34 0.500000
e 20 0.500000
e 20 0.500000
e 36 0.500000
e 20 0.500000 p 0 a 0 60 0.25 0 50410
e 29 0.125000
e 36 0.125000
e 32 0.125000
e 29 0.125000
e 34 0.125000
e 41 0.125000
e 29 0.125000
e 41 0.125000
e 34 0.125000
e 29 0.125000
e 36 0.125000
e 36 0.125000
e 29 0.125000
e 36 0.125000
e 38 0.125000
e 36 0.125000
e 31 0.125000
e 36 0.125000
e 29 0.125000
e 29 0.125000
e 32 0.125000
e 36 0.125000
e 27 0.125000
e 43 0.125000
e 53 0.125000
e 39 0.125000
e 32 0.125000
e 41 0.125000
e 31 0.125000
e 34 0.125000
e 36 0.125000
e 36 0.125000
e 41 0.125000
e 29 0.125000
e 34 0.125000
e 43 0.125000
e 46 0.125000
e 38 0.125000
e 27 0.125000
e 41 0.125000
e 34 0.125000
e 39 0.125000
e 38 0.125000
e 36 0.125000
e 27 0.125000
e 41 0.125000
e 36 0.125000
e 32 0.125000
e 36 0.125000
e 39 0.125000
e 36 0.125000
e 41 0.125000
e 34 0.125000
e 27 0.125000
e 38 0.125000
e 41 0.125000
e 32 0.125000
e 32 0.125000
e 32 0.125000
e 39 0.125000
e 32 0.125000
e 36 0.125000
e 44 0.125000
e 32 0.125000
e 36 0.125000
e 34 0.125000
e 39 0.125000
e 44 0.125000
e 29 0.125000
e 31 0.125000
e 36 0.125000
e 41 0.125000
e 39 0.125000
e 31 0.125000
e 36 0.125000
e 39 0.125000
e 34 0.125000
e 24 0.125000
e 36 0.125000
e 39 0.125000
e 29 0.125000
e 36 0.125000
e 34 0.125000
e 32 0.125000
e 34 0.125000
e 39 0.125000
e 29 0.125000
e 36 0.125000
e 31 0.125000
e 24 0.125000
e 32 0.125000
e 32 0.125000
e 36 0.125000
e 32 0.125000
e 34 0.125000
e 36 0.125000
e 39 0.125000
e 32 0.125000
e 44 0.125000
e 31 0.125000
e 43 0.125000
e 32 0.125000
e 39 0.125000
e 36 0.125000
e 44 0.125000
e 43 0.125000
e 27 0.125000
e 31 0.125000
e 38 0.125000
e 34 0.125000
e 41 0.125000
e 43 0.125000
e 41 0.125000
e 34 0.125000
e 39 0.125000
e 48 0.125000
e 34 0.125000
e 38 0.125000
e 32 0.125000
e 34 0.125000 p 0 x 2 nombre.wav 0 x
