\version "2.16.2"
{
<<
{ \tempo 4=120 f'2 a'2 f''2 f''2 g''2 c'''2 a''2 c'''2 c'''2 e''2 d''2 b'2 d''2 a'2 a'2  }
{ \tempo 4=120 a''16 g''16 c'''16 c'''16 g''16 d''16 e''16 d''16 g'16 f'16 d'16 f'16 g'16 f'16 g'16 g'8 f'16 f'16 c''16 d''8 d''16 d''16 d''16 d''8 c''16 g'16 c''16 d''16 f''16 c''16 f'16 d'8 c'16 f8 f8 f16 f16 f16 b16 a8 c'8 a8 g8 a16 c'16 d'16 b16 d'16 g16 a16 f16 f16 f16 a16 b16 b16 a16 a16 e'16 d'16 f16 f16 g16 e'16 e'16 c''16 c''8 c''8 f''16 g''16 a''16 g''16 b''16 b''16 c'''16 c'''16 g''16 f''16 a''16 g''16 d''16 b'16 c''16 e''16 a''16 g''16 b''16 c'''16 b''16 c'''16 c'''16 c'''16 a''16 c'''8 a''8 a''8 d''8 d''8 e''8 d''8 g''16  }

>>
}