\version "2.16.2"
{
<<
{ f2 b'2 a2 f2 c'2 e,2 a2 c2 e2 g,2 b2 e2 c2 e2 c2  }
{ e'16 d'16 g8 a'16 g'16 a''8 c'16 d'16 g'16 a'16 c'16 a''16 d'8 g,16 d''16 g16 f16 d''16 g16 g'16 f'16 b''16 a'16 b''16 f'16 c''16 d'16 b'16 g'16 f16 b''16 c16 d''16 b'16 a'16 e16 d'16 b'8 d'16 f'16 f16 d16 d''16 g'16 e8 g'8 f'16 f'8 a'16 f'16 g'8 f''8 g8 f''8 g8 e'8 f''8 a'16 g16 a'8 g'8 g'8 c'8 f'8 c'16 f''16 f'16 b'16 a'16 f'16 f'8 f''8 c''16 b''16 f'16 f''8 g''16 f'16 f''16 c'16 g16 c''16 c'16 b'16 b''16 b'16 a''16 b''16 d'16 c'16 d''8 c''16 c'8 d''16 b''16 g'16  }

>>
}
