\version "2.16.2"
{
<<
{ \tempo 4=120 a'2 f'2 g'2 g'2 g'2 c'2 g2 f2 f2 f2 f2 f2 f2 a2 d'2  }
{ \tempo 4=120 b'16 c''16 e''16 g'16 g'16 d'16 f'16 b16 d'16 c''16 f''16 a''16 a'16 c''16 g'16 a'16 a'16 d'16 c'16 f'16 b'16 g'16 c''16 b'16 a'16 a'16 a'16 f'16 f'16 d'16 e'16 e'16 f16 g16 f16 f16 a16 a16 f16 b16 d'16 c'16 f'16 e'16 e'16 e'16 a'16 a'16 b'16 g''16 c'''16 a''16 b'16 f'16 f'16 g'16 b'16 c''16 g''16 g'16 f'16 c'16 a16 f16 f16 f16 f16 f16 f16 f16 g16 f16 c'16 a16 c'16 f16 f16 f16 a16 f16 f16 a16 d'16 f'16 d'16 c'16 f'16 c''16 b'16 d'16 c'16 b16 f'16 a16 a16 b16 c'16 g16 b16 d'16 g16 f16 a16 c'16 a16 d'16 f'16 d'16 f'16 e'16 a'16 f'16 a'16 c''16 a'16 c'16 g16 f16 c'16 f'16  }

>>
}