\version "2.16.2"
{
<<
{ d4 f4 c4 d'4 a'4 c4 g4 g4 d4 d4 d'4 a4 a'4 d4 g4 d4 f4 g4 f,4 c4  }
{ c'32 d'32 f32 g'32 d'32 a''32 d'16 f'16 e'16 d''32 c'16 b'32 b'32 a''32 c'32 f'32 f''32 g'32 a'32 a'32 c''32 f''32 c''32 a''32 b''32 a''32 c'16 a'16 a'16 a'''16 f'32 c'32 c'32 b'32 c''32 a''32 a''32 f16 d'16 c'16 d''32 a'32 c''32 g'32 g32 d32 a'16 f16 a''16 e'16 a'16 d'32 d'32 c'32 b''32 c'32 e'32 a''32 g32 g'32 e'32 d16 d32 d'32 a''32 a'32 a'16 f32 f'32 a'32 d'32 b''32 g32 g'32 c''32 c'32 d''32 g'32 g32 b'16 g'32 d''32 e'32 a'32 d'32 a''32 c'32 e''32 a'32 a''32 a''16 b16 f'16 d'32 c'32 g'32 c'16 f'16 f'32 c''32 c''32 c'32 a''32 f'32 f16 b''16 a'32 d'32 a''16 g'16 a''16 c''16 a''16 a'16 b'32 g'16 g'32 f'32 f'16 e''16 d'16 a''16 g32  }

>>
}

