\version "2.16.2"
{
<<
{ \tempo 4 = 120 a'4 g4 e4 c4  }
{ d'32 b'32 g'32 c'32 d'32 a''32 c'32 f''32 d''32 g32 g'32 d''32 f'32 d''32 f'32 b''32 g'32 c''32 d''32 g32 f32 c'32 a''32 b'32 c''16 d'16 f'16 a'16  }

>>
}

