\version "2.16.2"
{
<<
{ \tempo 4=120 f'2 d'2 a2 g2 f2 f2 f2 f2 f2 f2 f2 f2 f2 f2 f2 f2 f2 g2 a2 g'2 d''2 d''2 e''2 e'2 e'2 b2 d'2 a2 a2 g2 g2 f2 f2 f2 g2 g2 f2 f2 f2 f2  }
{ \tempo 4=120 g''16 b''16 a''8 e''16 g''16 c''16 g'16 a'16 a'16 f'16 a16 a16 d'16 e'16 d'8 d'8 a8 f16 g16 b16 g16 f8 g8 f8 f8 f16 f8 a8 f8 g8 c'8 e'16 g'16 c'16 d'8 c'16 g16 c'16 b16 a'16 f'16 d'16 g16 b16 c'16 b16 d'8 a16 d'16 f16 f16 f16 f16 c'16 a16 f8 f8 f8 g8 f8 f16 f8 f8 f16 f16 a16 d'16 g16 g16 c'16 g'16 f'16 b'16 d''16 e''16 b'16 e''16 g''16 d''8 b'8 g'16 d'16 b'16 d''16 g''16 d''16 a'16 e''16 d''16 f''16 f''16 f''16 e''16 c''16 f'16 b16 g16 f16 d'16 f16 f16 f16 f8 f8 g8 g8 f16 g16 f16 f16 g16 f16 f8 g16 f16 f16 f16 a8 g8 b8 a8 f8 f8 g8 a8 a16 a8 c'16 d'16 f'16 a'16 d''16 c''16 b'16 d''16 d''16 d''8 d''8 d''8 b''8 c'''16 f''16 d''16 c''16 g'16 c''16 d''16 f''16 g''8 b''8 c'''8 c'''8 c'''16 e''16 e''8 e''8 c''8 a'8 f'16 c'16 b16 d'8 c'16 g16 g16 f16 f8 f16 d'8 g'8 c''8 f'8 g'8 d'8 f'16 f'16 f'16 c'16 c'16 a16 g16 f16 f16 f16 f16 a16 a16 f16 a16 a16 d'16 a16 a16 c'16 a16 g16 f16 a16 a16 d'16 f'16 g'16 b'16 a'8 d''16 a'16 c''16 e''16 c''16 d''16 c''16 d''16 g'16 c'16 f16 g8 c'8 g'16 a'16 d'16 g'16 c'16 f16 f8 f8 f16 g16 f16 f16 f16 a16 f16 f16 c'16 e'16 b'16 b'8 e''16 g''16 b''16 f''16 g''16 c'''16 c'''8 a''8 c'''8 a''8 c'''8 c'''16 b''16  }

>>
}