\version "2.16.2"
{
<<
{ \tempo 4=120 c'2 b2 g2 f'2 g'2 b2 d'2 c'2 b2 f2 f2 f2 f2 g2 e'2 f'2 f''2 a'2 g'2 f'2 f'2 g'2 g'2 b'2 c'''2 c'''2 f''2 a''2 a''2 b'2 e''2 f'2 d'2 b'2 e'2 d'2 a'2 d'2 f2 f2 f2 a2 d'2 b2 d'2 c'2 f2 g2 e'2 f'2 c'2 c'2 c''2 d''2 b'2 a'2 a''2 a''2 a''2 c''2  }
{ \tempo 4=120 b''16 c'''16 d'''16 f'''16 f'''16 a''16 e''16 f''16 c''8 f''16 f''16 c''16 a'16 c''16 g'16 d'16 f'16 g'16 f'16 g'16 g'16 c''16 e''16 c''16 f''16 g''16 a''16 a''16 f''16 d''16 a'16 g'16 f'16 a'16 a'8 f'8 a'8 g'8 c''8 c''8 d''16 c''16 b'16 g'16 f'16 c'16 f'16 e'8 f'8 e'16 a'16 a'16 b16 f16 f8 g16 f16 a16 f16 f16 f16 g16 f16 f16 a16 f16 f16 g16 a16 f16 f8 a8 f16 b16 c'8 d'8 f'16 b16 c'16 g16 f16 g16 f16 f16 a16 g16 f16 f16 f16 b16 f16 f16 g16 a16 c'16 a16 f16 f16 a16 b16 c'16 d'16 a16 g16 f16 f16 f16 f16 f16 f16 f16 g16 g'16 f'16 f'16 d'16 f16 f16 f16 f16 f16 f8 f16 f16 f16 f16 f16 f16 f16 c'16 f16 f16 f16 f16 d'16 a8 f8 g16 c'16 g'16 a16 c'16 d'16 g'16 g'16 e'16 d'16 f'16 a'16 g'16 f'16 a16 d'16 d'16 e'16 e'16 d'16 e'16 c'16 c'16 d'16 d'16 d'16 c'16 g8 a16 g16 a16 a16 c'16 c'8 e'8 f'8 f'8 f'8 f'16 f'16 d'16 a16 f16 f16 f8 f8 g8 c'16 f'8 g'8 d''8 b'8 g'8 d''16 d''16 f''16 g''16 b''16 b''16 d'''16 e'''16 g'''8 a'''16 a'''16 a'''16 a'''16 d'''16 a'''16 a'''16 a'''16 g'''16 d'''16 c'''16 a''16 c'''16 a''8 c'''16 f''16 e''16 a'16 f'16 g8 b8 b8 c'8 d'8 c'16 b16 a16 d'8 f'16 f'16 g'8 a'16 c''16 f'16 f'16 b16 a16 b16 c'16 c'16 g16 a16 f8 f8 b16 g16 c'16 e'16 d'16 c'16 c'8 f'8 c'16 d'16 a'16 g'16 a'16 e'16 d'8 c'8 g'16 e'8 f'16 g'8 a'16 b'16 a'16 f''16 f''16 a''16 e''16 d''16 c''8 d''16 e''16 f''16 g''16 g''8 f''8 f''8 g''8 f''8 f''8 a''16 g''16 f''16 f''16 a''16 e''16 d''16 a'16 f'16 g'16 f'16 g'16 g'16 d'16 f'16 a16 a8 a8 f16 g16 a16 a8 f8 f8 a16 f16 g16 g16 c'16 d'16 f'16 f'8 c''8 d''16 f'16 c'16 f'16 g'8 f'8 f'8 c''16 f'16 d'8 c'16 b16 a16 a16 d'16 e'16 f'16 a'8 a'8 g'8 a'16 f'16 g'16 b'16 d''16 d''8 g''8 f''8 f''16 f''16 g''8 a''16 a''16 a''16 a''16 g''16 f''16 g''16 c''16 f'16 d'16 d'16 d'16 f'16 d'16 c'16 c'16 c'16 a16 d'16 f16 g8 a8 g8 f16 f16 g16 a16 c'16 b16 g16 f16 f16 a16 f16 g16 c'16 b8 a8 f16 f16 a16 b16 d'16 g'16 g'16 c'16 g16 d'16 d'16 g16 f16 a16 f16 f16 f8  }

>>
}