\version "2.16.2"
{
<<
{ \tempo 4=120 a'''2 a'''2 a'''2 a'''2 a'''2 a'''2 a'''2 a'''2 a'''2 a'''2 a'''2 a'''2 a'''2 a'''2 a'''2  }
{ \tempo 4=120 a'''16 a'''16 a'''16 a'''16 a'''16 a'''16 a'''16 a'''16 a'''16 a'''16 a'''16 a'''16 a'''16 a'''16 a'''16 a'''16 a'''16 a'''16 a'''16 a'''16 a'''16 a'''16 a'''16 a'''16 a'''16 a'''16 a'''16 a'''16 a'''16 a'''16 a'''16 a'''16 a'''16 a'''16 a'''16 a'''16 a'''16 a'''16 a'''16 a'''16 a'''16 a'''16 a'''16 a'''16 a'''16 a'''16 a'''16 a'''16 a'''16 a'''16 a'''16 a'''16 a'''16 a'''16 a'''16 a'''16 a'''16 a'''16 a'''16 a'''16 a'''16 a'''16 a'''16 a'''16 a'''16 a'''16 a'''16 a'''16 a'''16 a'''16 a'''16 a'''16 a'''16 a'''16 a'''16 a'''16 a'''16 a'''16 a'''16 a'''16 a'''16 a'''16 a'''16 a'''16 a'''16 a'''16 a'''16 a'''16 a'''16 a'''16 a'''16 a'''16 a'''16 a'''16 a'''16 a'''16 a'''16 a'''16 a'''16 a'''16 a'''16 a'''16 a'''16 a'''16 a'''16 a'''16 a'''16 a'''16 a'''16 a'''16 a'''16 a'''16 a'''16 a'''16 a'''16 a'''16 a'''16 a'''16 a'''16 a'''16  }

>>
}