\version "2.16.2"
{
<<
{ \tempo 4=120 g'2 d''2 c'''2 c'''2 c'''2 a''2 f''2 f''2 d''2 c''2 f'2 g'2 a'2 b'2 f''2  }
{ \tempo 4=120 c''16 e''16 f''16 b''16 c'''16 c'''8 c'''8 c'''16 c'''16 c'''8 c'''16 a''16 g''16 g''8 e''16 c''16 d''16 e''16 g''16 g''16 g''16 f''16 d''16 e''16 c''16 c''16 a'16 d''16 f''16 b''16 c'''16 f''16 c''8 d''8 a'16 a'16 f'16 c'16 f'16 f'16 g'16 f'16 f'16 a'16 a'16 d''16 a'16 c''8 a'8 g'8 f'8 c''16 a'16 f'16 a'16 c''16 c''16 b'16 a''8 c'''8 g''8 c'''8 b''16 g''16 f''16 a'8 d''16 e''16 a'8 f'8 g'8 f'8 d'8 c'8 d'16 c'16 c'16 d'16 d'16 b'16 c''16 d''8 g'8 f'16 c'16 a8 a8 b8 d'8 d'8 g'16 b'16  }

>>
}