\version "2.16.2"
{
<<
{ \tempo 4=120 b'2 d''2 b''2 f''2 c'''2 b''2 b''2 g''2 a''2 g''2  }
{ \tempo 4=120 f''16 c''16 g'16 a'16 g''8 g''8 f''8 d''8 g''8 c'''16 c'''8 e''16 g''16 f'16 f'8 a8 g16 g16 g16 a8 c8 g8 d'16 a16 f'16 f'16 g16 f16 c16 g16 c16 g'16 f'16 f'16 c'16 c16 c16 c16 f'16 e'16 c16 c16 c16 e16 c16 c16 a16 c16 c8 c16 g16 c'16 f'16 d'16 g16 a16 a16 g16 d16 c16 c16 b'16 c''16 d'16 a16 c'16 d''16 d''16  }

>>
}