\version "2.16.2"
{
<<
{ \tempo 4=120 a'2 e'2 b2 c'2 f2 g2 e'2 c'2 d'2 a2 a2 g2 f2 b2 f2  }
{ \tempo 4=120 f''16 f''16 g''16 g''16 a''16 f''8 f''16 e''16 f''8 a''16 d'''16 g''16 f''16 e''16 e''16 c''16 c'16 e'8 c'8 b8 g'16 f'16 g'16 g'16 f'16 f'16 a'16 g'16 c'8 d'8 a'8 g'16 g'16 f'16 a'16 g'16 a'8 a'8 g'8 d'16 g16 g16 g8 f16 g16 g16 g16 f16 g16 g16 f16 f16 a16 g16 a16 c'16 c'16 b8 c'16 a16 f16 f16 c'16 f'8 e'16 b16 f'16 d'16 b8 f'8 e'16 a8 c'8 c'8 a'16 b'16 c''16 g'16 b16 g16 f16 f16 a16 c'8 c'8 c'8 f'8 d'8 c'8 g8 g16 f16 f16 f16  }

>>
}