\version "2.16.2"
{
<<
{ \tempo 4=120 f'2 d'2 f'2 a'2 a'2 a2 a2 b2 f2 f2 f2 f2 f2 f2 f2  }
{ \tempo 4=120 g''16 f''16 d''16 f''16 b''16 a''16 b''16 d'''16 c'''16 c'''16 g'''16 a'''16 a'''16 a'''16 a'''16 c'''16 a''8 d'''8 d'''8 a'''8 g'''16 g'''16 a'''16 g'''16 a'''16 d'''16 g''16 c'''16 d'''16 g''16 f''16 g''8 e''8 c''8 a'8 b8 g'8 d'8 a'8 b'8 e'16 b16 f16 a16 c'16 f16 f8 f16 e'16 e'16 f'16 a'16 a'16 f'16 e''16 g''16 f''16 c''16 g'16 a16 c'16 f'16 f'8 c'8 d'16 a16 d'16 g'16 d''16 f''16 b'8 b'16 f'16 a'16 a'16 f'16 a'16 b'16 a'16 f''16 a''16 e''8 a'8 c'16 c'16 e'16 g16 c'16 a16 f16 f16 f16 a16 g16 d'16 a8 d'8 a8  }

>>
}