\version "2.16.2"
{
<<
{ \tempo 4=120 f2 c2 b,2 f,2 a,2 f,2 f,2 f,2 d2 d2 d2 c2 c2 g,2 d2  }
{ \tempo 4=120 a16 a8 c'8 d'8 g'8 a'8 a'8 a'16 g'16 f'16 d'16 d'16 a16 g16 b16 g'16 g'16 a'16 c'16 g'16 d''16 g''16 c''16 d''16 f''16 g''16 a'16 f'16 f'8 f'16 a'8 e'8 g'8 a'8 a'16 a'16 c'16 d'16 d'16 f'16 f'16 c'16 a16 a16 e16 d'16 f'8 g'8 a'8 a'16 a'16 c''16 d''8 b'16 g'16 f'16 d'16 f'16 d''16 d''16 a'8 d'16 f'16 f'8 g'8 a'8 d''8 g'8 a'8 d'16 d'16 e'8 e'16 d'16 e'8 d'8 g'16 a'16 a'8 c''8 c''16 c''16 a'8 a'8 g'16 d'16 c'8 f16 f16 a16  }

>>
}